{
  "name": "neibor",
  "app_id": "11a6bd8b",
  "integrations": {
    "cordova": {}
  },
  "type": "ionic1",
  "watchPatterns": [
    "scss/**/*",
    "www/**/*",
    "!www/lib/**/*",
    "!www/**/*.map"
  ]
}
